// Jest Snapshot v1, https://goo.gl/fbAQLP

exports[`Pruebas en <Notice /> Debe verse correctamente 1`] = `
<div
  className="notice__container"
>
  <a
    className="notice__link "
    href="https://www.youtube.com"
    rel="noreferrer"
    target="_blank"
  >
    <div
      className="notice__container--left"
    >
      <h3
        className="notice__title"
      >
        Esto es un título
      </h3>
      <h4
        className="notice__author"
      >
        - 
        Gabriel Iriarte
         -
      </h4>
    </div>
  </a>
  <div
    className="notice__container--right"
  >
    <h5
      className="notice__hour"
    >
      miércoles, 19 de enero de 2022 11:47
    </h5>
    <i
      className="fas fa-trash notice__icon"
      onClick={[Function]}
    />
  </div>
</div>
`;
